timing-diagrams/vlt_dump.vcd
$version Generated by VerilatedVcd $end
$date Tue Nov  8 21:02:11 2022
 $end
$timescale   1ns $end

 $scope module TOP $end
  $var wire  1 5! clk $end
  $var wire 12 M! data_out [11:0] $end
  $var wire  1 =! enable $end
  $var wire 12 E! signal_in [11:0] $end
  $scope module top $end
   $var wire  1 5! clk $end
   $var wire 12 M! data_out [11:0] $end
   $var wire  1 =! enable $end
   $var wire 12 E! signal_in [11:0] $end
   $scope module adc $end
    $var wire 32 ]! DELAY [31:0] $end
    $var wire 32 U! NBITS [31:0] $end
    $var wire  1 5! clk $end
    $var wire  5 # count [4:0] $end
    $var wire 12 M! data_out [11:0] $end
    $var wire  1 =! enable $end
    $var wire  1 + read $end
    $var wire 12 E! signal_in [11:0] $end
    $var wire  1 3 write $end
    $scope module fifo $end
     $var wire 32 U! NBITS [31:0] $end
     $var wire 32 e! NDEPTH_BITS [31:0] $end
     $var wire 12 ; buffer(0) [11:0] $end
     $var wire 12 < buffer(1) [11:0] $end
     $var wire 12 = buffer(2) [11:0] $end
     $var wire 12 > buffer(3) [11:0] $end
     $var wire 12 ? buffer(4) [11:0] $end
     $var wire 12 @ buffer(5) [11:0] $end
     $var wire 12 A buffer(6) [11:0] $end
     $var wire 12 B buffer(7) [11:0] $end
     $var wire  1 5! clk $end
     $var wire 12 E! data_in [11:0] $end
     $var wire 12 M! data_out [11:0] $end
     $var wire  1 =! enable $end
     $var wire  3 { head [2:0] $end
     $var wire 32 -! i [31:0] $end
     $var wire  1 + read $end
     $var wire  3 %! tail [2:0] $end
     $var wire  1 3 write $end
    $upscope $end
   $upscope $end
  $upscope $end
 $upscope $end
$enddefinitions $end


#1
b11001 #
0+
13
b101001011111 ;
b100100111101 <
b111001000001 =
b001111011111 >
b001001011000 ?
b011000100111 @
b001011011110 A
b100100110011 B
b010 {
b001 %!
b00110101101101111100101000101111 -!
15!
0=!
b000000000000 E!
b011010010001 M!
b00000000000000000000000000001100 U!
b00000000000000000000000000000110 ]!
b00000000000000000000000000000011 e!
#2
05!
b000100000000 E!
#3
b00000 #
03
b111111111111 ;
b111111111111 <
b111111111111 =
b111111111111 >
b111111111111 ?
b111111111111 @
b111111111111 A
b111111111111 B
b000 {
b000 %!
b00000000000000000000000000001000 -!
15!
b111111111111 M!
#4
05!
b001000000000 E!
#5
15!
#6
05!
b001100000000 E!
#7
15!
#8
05!
b010000000000 E!
#9
15!
#10
05!
b010100000000 E!
#11
b00001 #
13
15!
1=!
#12
05!
b011000000000 E!
#13
b00010 #
b011000000000 ;
b001 {
15!
#14
05!
b011100000000 E!
#15
b00011 #
b011100000000 <
b010 {
15!
#16
05!
b100000000000 E!
#17
b00100 #
b100000000000 =
b011 {
15!
#18
05!
b100100000000 E!
#19
b00101 #
b100100000000 >
b100 {
15!
#20
05!
b101000000000 E!
#21
1+
b101000000000 ?
b101 {
15!
#22
05!
b101100000000 E!
#23
b101100000000 @
b110 {
b001 %!
15!
b011000000000 M!
#24
05!
b110000000000 E!
#25
b110000000000 A
b111 {
b010 %!
15!
b011100000000 M!
#26
05!
b110100000000 E!
#27
b110100000000 B
b000 {
b011 %!
15!
b100000000000 M!
#28
05!
b111000000000 E!
#29
b111000000000 ;
b001 {
b100 %!
15!
b100100000000 M!
#30
05!
b111100000000 E!
#31
b111100000000 <
b010 {
b101 %!
15!
b101000000000 M!
#32
05!
b000000000000 E!
#33
b000000000000 =
b011 {
b110 %!
15!
b101100000000 M!
#34
05!
b000100000000 E!
#35
b000100000000 >
b100 {
b111 %!
15!
b110000000000 M!
#36
05!
b001000000000 E!
#37
b001000000000 ?
b101 {
b000 %!
15!
b110100000000 M!
#38
05!
b001100000000 E!
#39
b001100000000 @
b110 {
b001 %!
15!
b111000000000 M!
#40
05!
b010000000000 E!
#41
b010000000000 A
b111 {
b010 %!
15!
b111100000000 M!
#42
05!
b010100000000 E!
#43
b010100000000 B
b000 {
b011 %!
15!
b000000000000 M!
#44
05!
b011000000000 E!
#45
b011000000000 ;
b001 {
b100 %!
15!
b000100000000 M!
#46
05!
b011100000000 E!
#47
b011100000000 <
b010 {
b101 %!
15!
b001000000000 M!
#48
05!
b100000000000 E!
#49
b100000000000 =
b011 {
b110 %!
15!
b001100000000 M!
#50
05!
b100100000000 E!
#51
b100100000000 >
b100 {
b111 %!
15!
b010000000000 M!
#52
05!
b101000000000 E!
#53
b101000000000 ?
b101 {
b000 %!
15!
b010100000000 M!
#54
05!
b101100000000 E!
#55
b101100000000 @
b110 {
b001 %!
15!
b011000000000 M!
#56
05!
b110000000000 E!
#57
b110000000000 A
b111 {
b010 %!
15!
b011100000000 M!
#58
05!
b110100000000 E!
#59
b110100000000 B
b000 {
b011 %!
15!
b100000000000 M!
#60
05!
b111000000000 E!
#61
b111000000000 ;
b001 {
b100 %!
15!
b100100000000 M!
#62
05!
b111100000000 E!
#63
b111100000000 <
b010 {
b101 %!
15!
b101000000000 M!
#64
05!
b000000000000 E!
#65
b000000000000 =
b011 {
b110 %!
15!
b101100000000 M!
#66
05!
b000100000000 E!
#67
b000100000000 >
b100 {
b111 %!
15!
b110000000000 M!
#68
05!
b001000000000 E!
#69
b001000000000 ?
b101 {
b000 %!
15!
b110100000000 M!
#70
05!
b001100000000 E!
#71
b001100000000 @
b110 {
b001 %!
15!
b111000000000 M!
#72
05!
b010000000000 E!
#73
b010000000000 A
b111 {
b010 %!
15!
b111100000000 M!
#74
05!
b010100000000 E!
#75
b010100000000 B
b000 {
b011 %!
15!
b000000000000 M!
#76
05!
b011000000000 E!
#77
b011000000000 ;
b001 {
b100 %!
15!
b000100000000 M!
#78
05!
b011100000000 E!
#79
b011100000000 <
b010 {
b101 %!
15!
b001000000000 M!
#80
05!
b100000000000 E!
#81
b100000000000 =
b011 {
b110 %!
15!
b001100000000 M!
#82
05!
b100100000000 E!
#83
b100100000000 >
b100 {
b111 %!
15!
b010000000000 M!
#84
05!
b101000000000 E!
#85
b101000000000 ?
b101 {
b000 %!
15!
b010100000000 M!
#86
05!
b101100000000 E!
#87
b101100000000 @
b110 {
b001 %!
15!
b011000000000 M!
#88
05!
b110000000000 E!
#89
b110000000000 A
b111 {
b010 %!
15!
b011100000000 M!
#90
05!
b110100000000 E!
#91
b110100000000 B
b000 {
b011 %!
15!
b100000000000 M!
#92
05!
b111000000000 E!
#93
b111000000000 ;
b001 {
b100 %!
15!
b100100000000 M!
#94
05!
b111100000000 E!
#95
b111100000000 <
b010 {
b101 %!
15!
b101000000000 M!
#96
05!
b000000000000 E!
#97
b000000000000 =
b011 {
b110 %!
15!
b101100000000 M!
#98
05!
b000100000000 E!
#99
b000100000000 >
b100 {
b111 %!
15!
b110000000000 M!
#100
05!
b001000000000 E!
#101
b001000000000 ?
b101 {
b000 %!
15!
b110100000000 M!
#102
05!
b001100000000 E!
#103
b001100000000 @
b110 {
b001 %!
15!
b111000000000 M!
#104
05!
b010000000000 E!
#105
b010000000000 A
b111 {
b010 %!
15!
b111100000000 M!
#106
05!
b010100000000 E!
#107
b010100000000 B
b000 {
b011 %!
15!
b000000000000 M!
#108
05!
b011000000000 E!
#109
b011000000000 ;
b001 {
b100 %!
15!
b000100000000 M!
#110
05!
b011100000000 E!
#111
b011100000000 <
b010 {
b101 %!
15!
b001000000000 M!
#112
05!
b100000000000 E!
#113
b100000000000 =
b011 {
b110 %!
15!
b001100000000 M!
#114
05!
b100100000000 E!
#115
b100100000000 >
b100 {
b111 %!
15!
b010000000000 M!
#116
05!
b101000000000 E!
#117
b101000000000 ?
b101 {
b000 %!
15!
b010100000000 M!
#118
05!
b101100000000 E!
#119
b101100000000 @
b110 {
b001 %!
15!
b011000000000 M!
#120
05!
b110000000000 E!
#121
b110000000000 A
b111 {
b010 %!
15!
b011100000000 M!
#122
05!
b110100000000 E!
#123
b110100000000 B
b000 {
b011 %!
15!
b100000000000 M!
#124
05!
b111000000000 E!
#125
b111000000000 ;
b001 {
b100 %!
15!
b100100000000 M!
#126
05!
b111100000000 E!
#127
b111100000000 <
b010 {
b101 %!
15!
b101000000000 M!
#128
05!
b000000000000 E!
#129
b000000000000 =
b011 {
b110 %!
15!
b101100000000 M!
#130
05!
b000100000000 E!
#131
b000100000000 >
b100 {
b111 %!
15!
b110000000000 M!
#132
05!
b001000000000 E!
#133
b001000000000 ?
b101 {
b000 %!
15!
b110100000000 M!
#134
05!
b001100000000 E!
#135
b001100000000 @
b110 {
b001 %!
15!
b111000000000 M!
#136
05!
b010000000000 E!
#137
b010000000000 A
b111 {
b010 %!
15!
b111100000000 M!
#138
05!
b010100000000 E!
#139
b010100000000 B
b000 {
b011 %!
15!
b000000000000 M!
#140
05!
b011000000000 E!
#141
b011000000000 ;
b001 {
b100 %!
15!
b000100000000 M!
#142
05!
b011100000000 E!
#143
b011100000000 <
b010 {
b101 %!
15!
b001000000000 M!
#144
05!
b100000000000 E!
#145
b100000000000 =
b011 {
b110 %!
15!
b001100000000 M!
#146
05!
b100100000000 E!
#147
b100100000000 >
b100 {
b111 %!
15!
b010000000000 M!
#148
05!
b101000000000 E!
#149
b101000000000 ?
b101 {
b000 %!
15!
b010100000000 M!
#150
05!
b101100000000 E!
#151
b101100000000 @
b110 {
b001 %!
15!
b011000000000 M!
#152
05!
b110000000000 E!
#153
b110000000000 A
b111 {
b010 %!
15!
b011100000000 M!
#154
05!
b110100000000 E!
#155
b110100000000 B
b000 {
b011 %!
15!
b100000000000 M!
#156
05!
b111000000000 E!
#157
b111000000000 ;
b001 {
b100 %!
15!
b100100000000 M!
#158
05!
b111100000000 E!
#159
b111100000000 <
b010 {
b101 %!
15!
b101000000000 M!
#160
05!
b000000000000 E!
#161
b000000000000 =
b011 {
b110 %!
15!
b101100000000 M!
#162
05!
b000100000000 E!
#163
b000100000000 >
b100 {
b111 %!
15!
b110000000000 M!
#164
05!
b001000000000 E!
#165
b001000000000 ?
b101 {
b000 %!
15!
b110100000000 M!
#166
05!
b001100000000 E!
#167
b001100000000 @
b110 {
b001 %!
15!
b111000000000 M!
#168
05!
b010000000000 E!
#169
b010000000000 A
b111 {
b010 %!
15!
b111100000000 M!
#170
05!
b010100000000 E!
#171
b010100000000 B
b000 {
b011 %!
15!
b000000000000 M!
#172
05!
b011000000000 E!
#173
b011000000000 ;
b001 {
b100 %!
15!
b000100000000 M!
#174
05!
b011100000000 E!
#175
b011100000000 <
b010 {
b101 %!
15!
b001000000000 M!
#176
05!
b100000000000 E!
#177
b100000000000 =
b011 {
b110 %!
15!
b001100000000 M!
#178
05!
b100100000000 E!
#179
b100100000000 >
b100 {
b111 %!
15!
b010000000000 M!
#180
05!
b101000000000 E!
#181
b101000000000 ?
b101 {
b000 %!
15!
b010100000000 M!
#182
05!
b101100000000 E!
#183
b101100000000 @
b110 {
b001 %!
15!
b011000000000 M!
#184
05!
b110000000000 E!
#185
b110000000000 A
b111 {
b010 %!
15!
b011100000000 M!
#186
05!
b110100000000 E!
#187
b110100000000 B
b000 {
b011 %!
15!
b100000000000 M!
#188
05!
b111000000000 E!
#189
b111000000000 ;
b001 {
b100 %!
15!
b100100000000 M!
#190
05!
b111100000000 E!
#191
b111100000000 <
b010 {
b101 %!
15!
b101000000000 M!
#192
05!
b000000000000 E!
#193
b000000000000 =
b011 {
b110 %!
15!
b101100000000 M!
#194
05!
b000100000000 E!
#195
b000100000000 >
b100 {
b111 %!
15!
b110000000000 M!
#196
05!
b001000000000 E!
#197
b001000000000 ?
b101 {
b000 %!
15!
b110100000000 M!
#198
05!
b001100000000 E!
#199
b001100000000 @
b110 {
b001 %!
15!
b111000000000 M!
#200
05!
b010000000000 E!
#201
b010000000000 A
b111 {
b010 %!
15!
b111100000000 M!
#202
05!
b010100000000 E!
#203
b010100000000 B
b000 {
b011 %!
15!
b000000000000 M!
#204
05!
b011000000000 E!
#205
b011000000000 ;
b001 {
b100 %!
15!
b000100000000 M!
#206
05!
b011100000000 E!
#207
b011100000000 <
b010 {
b101 %!
15!
b001000000000 M!
#208
05!
b100000000000 E!
#209
b100000000000 =
b011 {
b110 %!
15!
b001100000000 M!
#210
05!
b100100000000 E!
#211
b100100000000 >
b100 {
b111 %!
15!
b010000000000 M!
#212
05!
b101000000000 E!
#213
b101000000000 ?
b101 {
b000 %!
15!
b010100000000 M!
#214
05!
b101100000000 E!
#215
b101100000000 @
b110 {
b001 %!
15!
b011000000000 M!
#216
05!
b110000000000 E!
#217
b110000000000 A
b111 {
b010 %!
15!
b011100000000 M!
#218
05!
b110100000000 E!
#219
b110100000000 B
b000 {
b011 %!
15!
b100000000000 M!
#220
05!
b111000000000 E!
#221
b111000000000 ;
b001 {
b100 %!
15!
b100100000000 M!
#222
05!
b111100000000 E!
#223
b111100000000 <
b010 {
b101 %!
15!
b101000000000 M!
#224
05!
b000000000000 E!
#225
b000000000000 =
b011 {
b110 %!
15!
b101100000000 M!
#226
05!
b000100000000 E!
#227
b000100000000 >
b100 {
b111 %!
15!
b110000000000 M!
#228
05!
b001000000000 E!
#229
b001000000000 ?
b101 {
b000 %!
15!
b110100000000 M!
#230
05!
b001100000000 E!
#231
b001100000000 @
b110 {
b001 %!
15!
b111000000000 M!
#232
05!
b010000000000 E!
#233
b010000000000 A
b111 {
b010 %!
15!
b111100000000 M!
#234
05!
b010100000000 E!
#235
b010100000000 B
b000 {
b011 %!
15!
b000000000000 M!
#236
05!
b011000000000 E!
#237
b011000000000 ;
b001 {
b100 %!
15!
b000100000000 M!
#238
05!
b011100000000 E!
#239
b011100000000 <
b010 {
b101 %!
15!
b001000000000 M!
#240
05!
b100000000000 E!
#241
b100000000000 =
b011 {
b110 %!
15!
b001100000000 M!
#242
05!
b100100000000 E!
#243
b100100000000 >
b100 {
b111 %!
15!
b010000000000 M!
#244
05!
b101000000000 E!
#245
b101000000000 ?
b101 {
b000 %!
15!
b010100000000 M!
#246
05!
b101100000000 E!
#247
b101100000000 @
b110 {
b001 %!
15!
b011000000000 M!
#248
05!
b110000000000 E!
#249
b110000000000 A
b111 {
b010 %!
15!
b011100000000 M!
#250
05!
b110100000000 E!
#251
b110100000000 B
b000 {
b011 %!
15!
b100000000000 M!
#252
05!
b111000000000 E!
#253
b111000000000 ;
b001 {
b100 %!
15!
b100100000000 M!
#254
05!
b111100000000 E!
#255
b111100000000 <
b010 {
b101 %!
15!
b101000000000 M!
#256
05!
b000000000000 E!
#257
b000000000000 =
b011 {
b110 %!
15!
b101100000000 M!
#258
05!
b000100000000 E!
#259
b000100000000 >
b100 {
b111 %!
15!
b110000000000 M!
#260
05!
b001000000000 E!
#261
b001000000000 ?
b101 {
b000 %!
15!
b110100000000 M!
#262
05!
b001100000000 E!
#263
b001100000000 @
b110 {
b001 %!
15!
b111000000000 M!
#264
05!
b010000000000 E!
#265
b010000000000 A
b111 {
b010 %!
15!
b111100000000 M!
#266
05!
b010100000000 E!
#267
b010100000000 B
b000 {
b011 %!
15!
b000000000000 M!
#268
05!
b011000000000 E!
#269
b011000000000 ;
b001 {
b100 %!
15!
b000100000000 M!
#270
05!
b011100000000 E!
#271
b011100000000 <
b010 {
b101 %!
15!
b001000000000 M!
#272
05!
b100000000000 E!
#273
b100000000000 =
b011 {
b110 %!
15!
b001100000000 M!
#274
05!
b100100000000 E!
#275
b100100000000 >
b100 {
b111 %!
15!
b010000000000 M!
#276
05!
b101000000000 E!
#277
b101000000000 ?
b101 {
b000 %!
15!
b010100000000 M!
#278
05!
b101100000000 E!
#279
b101100000000 @
b110 {
b001 %!
15!
b011000000000 M!
#280
05!
b110000000000 E!
#281
b110000000000 A
b111 {
b010 %!
15!
b011100000000 M!
#282
05!
b110100000000 E!
#283
b110100000000 B
b000 {
b011 %!
15!
b100000000000 M!
#284
05!
b111000000000 E!
#285
b111000000000 ;
b001 {
b100 %!
15!
b100100000000 M!
#286
05!
b111100000000 E!
#287
b111100000000 <
b010 {
b101 %!
15!
b101000000000 M!
#288
05!
b000000000000 E!
#289
b000000000000 =
b011 {
b110 %!
15!
b101100000000 M!
#290
05!
b000100000000 E!
#291
b000100000000 >
b100 {
b111 %!
15!
b110000000000 M!
#292
05!
b001000000000 E!
#293
b001000000000 ?
b101 {
b000 %!
15!
b110100000000 M!
#294
05!
b001100000000 E!
#295
b001100000000 @
b110 {
b001 %!
15!
b111000000000 M!
#296
05!
b010000000000 E!
#297
b010000000000 A
b111 {
b010 %!
15!
b111100000000 M!
#298
05!
b010100000000 E!
#299
b010100000000 B
b000 {
b011 %!
15!
b000000000000 M!
#300
05!
b011000000000 E!
#301
b011000000000 ;
b001 {
b100 %!
15!
b000100000000 M!
#302
05!
b011100000000 E!
#303
b011100000000 <
b010 {
b101 %!
15!
b001000000000 M!
#304
05!
b100000000000 E!
#305
b100000000000 =
b011 {
b110 %!
15!
b001100000000 M!
#306
05!
b100100000000 E!
#307
b100100000000 >
b100 {
b111 %!
15!
b010000000000 M!
#308
05!
b101000000000 E!
#309
b101000000000 ?
b101 {
b000 %!
15!
b010100000000 M!
#310
05!
b101100000000 E!
#311
b101100000000 @
b110 {
b001 %!
15!
b011000000000 M!
#312
05!
b110000000000 E!
#313
b110000000000 A
b111 {
b010 %!
15!
b011100000000 M!
#314
05!
b110100000000 E!
#315
b110100000000 B
b000 {
b011 %!
15!
b100000000000 M!
#316
05!
b111000000000 E!
#317
b111000000000 ;
b001 {
b100 %!
15!
b100100000000 M!
#318
05!
b111100000000 E!
#319
b111100000000 <
b010 {
b101 %!
15!
b101000000000 M!
#320
05!
b000000000000 E!
#321
b000000000000 =
b011 {
b110 %!
15!
b101100000000 M!
#322
05!
b000100000000 E!
#323
b000100000000 >
b100 {
b111 %!
15!
b110000000000 M!
#324
05!
b001000000000 E!
#325
b001000000000 ?
b101 {
b000 %!
15!
b110100000000 M!
#326
05!
b001100000000 E!
#327
b001100000000 @
b110 {
b001 %!
15!
b111000000000 M!
#328
05!
b010000000000 E!
#329
b010000000000 A
b111 {
b010 %!
15!
b111100000000 M!
#330
05!
b010100000000 E!
#331
b010100000000 B
b000 {
b011 %!
15!
b000000000000 M!
#332
05!
b011000000000 E!
#333
b011000000000 ;
b001 {
b100 %!
15!
b000100000000 M!
#334
05!
b011100000000 E!
#335
b011100000000 <
b010 {
b101 %!
15!
b001000000000 M!
#336
05!
b100000000000 E!
#337
b100000000000 =
b011 {
b110 %!
15!
b001100000000 M!
#338
05!
b100100000000 E!
#339
b100100000000 >
b100 {
b111 %!
15!
b010000000000 M!
#340
05!
b101000000000 E!
#341
b101000000000 ?
b101 {
b000 %!
15!
b010100000000 M!
#342
05!
b101100000000 E!
#343
b101100000000 @
b110 {
b001 %!
15!
b011000000000 M!
#344
05!
b110000000000 E!
#345
b110000000000 A
b111 {
b010 %!
15!
b011100000000 M!
#346
05!
b110100000000 E!
#347
b110100000000 B
b000 {
b011 %!
15!
b100000000000 M!
#348
05!
b111000000000 E!
#349
b111000000000 ;
b001 {
b100 %!
15!
b100100000000 M!
#350
05!
b111100000000 E!
#351
b111100000000 <
b010 {
b101 %!
15!
b101000000000 M!
#352
05!
b000000000000 E!
#353
b000000000000 =
b011 {
b110 %!
15!
b101100000000 M!
#354
05!
b000100000000 E!
#355
b000100000000 >
b100 {
b111 %!
15!
b110000000000 M!
#356
05!
b001000000000 E!
#357
b001000000000 ?
b101 {
b000 %!
15!
b110100000000 M!
#358
05!
b001100000000 E!
#359
b001100000000 @
b110 {
b001 %!
15!
b111000000000 M!
#360
05!
b010000000000 E!
#361
b010000000000 A
b111 {
b010 %!
15!
b111100000000 M!
#362
05!
b010100000000 E!
#363
b010100000000 B
b000 {
b011 %!
15!
b000000000000 M!
#364
05!
b011000000000 E!
#365
b011000000000 ;
b001 {
b100 %!
15!
b000100000000 M!
#366
05!
b011100000000 E!
#367
b011100000000 <
b010 {
b101 %!
15!
b001000000000 M!
#368
05!
b100000000000 E!
#369
b100000000000 =
b011 {
b110 %!
15!
b001100000000 M!
#370
05!
b100100000000 E!
#371
b100100000000 >
b100 {
b111 %!
15!
b010000000000 M!
#372
05!
b101000000000 E!
#373
b101000000000 ?
b101 {
b000 %!
15!
b010100000000 M!
#374
05!
b101100000000 E!
#375
b101100000000 @
b110 {
b001 %!
15!
b011000000000 M!
#376
05!
b110000000000 E!
#377
b110000000000 A
b111 {
b010 %!
15!
b011100000000 M!
#378
05!
b110100000000 E!
#379
b110100000000 B
b000 {
b011 %!
15!
b100000000000 M!
#380
05!
b111000000000 E!
#381
b111000000000 ;
b001 {
b100 %!
15!
b100100000000 M!
#382
05!
b111100000000 E!
#383
b111100000000 <
b010 {
b101 %!
15!
b101000000000 M!
#384
05!
b000000000000 E!
#385
b000000000000 =
b011 {
b110 %!
15!
b101100000000 M!
#386
05!
b000100000000 E!
#387
b000100000000 >
b100 {
b111 %!
15!
b110000000000 M!
#388
05!
b001000000000 E!
#389
b001000000000 ?
b101 {
b000 %!
15!
b110100000000 M!
#390
05!
b001100000000 E!
#391
b001100000000 @
b110 {
b001 %!
15!
b111000000000 M!
#392
05!
b010000000000 E!
#393
b010000000000 A
b111 {
b010 %!
15!
b111100000000 M!
#394
05!
b010100000000 E!
#395
b010100000000 B
b000 {
b011 %!
15!
b000000000000 M!
#396
05!
b011000000000 E!
#397
b011000000000 ;
b001 {
b100 %!
15!
b000100000000 M!
#398
05!
b011100000000 E!
#399
b011100000000 <
b010 {
b101 %!
15!
b001000000000 M!
#400
05!
b100000000000 E!
#401
b100000000000 =
b011 {
b110 %!
15!
b001100000000 M!
#402
05!
b100100000000 E!
#403
b100100000000 >
b100 {
b111 %!
15!
b010000000000 M!
#404
05!
b101000000000 E!
#405
b101000000000 ?
b101 {
b000 %!
15!
b010100000000 M!
#406
05!
b101100000000 E!
#407
b101100000000 @
b110 {
b001 %!
15!
b011000000000 M!
#408
05!
b110000000000 E!
#409
b110000000000 A
b111 {
b010 %!
15!
b011100000000 M!
#410
05!
b110100000000 E!
#411
b110100000000 B
b000 {
b011 %!
15!
b100000000000 M!
#412
05!
b111000000000 E!
#413
b111000000000 ;
b001 {
b100 %!
15!
b100100000000 M!
#414
05!
b111100000000 E!
#415
b111100000000 <
b010 {
b101 %!
15!
b101000000000 M!
#416
05!
b000000000000 E!
#417
b000000000000 =
b011 {
b110 %!
15!
b101100000000 M!
#418
05!
b000100000000 E!
#419
b000100000000 >
b100 {
b111 %!
15!
b110000000000 M!
#420
05!
b001000000000 E!
#421
b001000000000 ?
b101 {
b000 %!
15!
b110100000000 M!
#422
05!
b001100000000 E!
#423
b001100000000 @
b110 {
b001 %!
15!
b111000000000 M!
#424
05!
b010000000000 E!
#425
b010000000000 A
b111 {
b010 %!
15!
b111100000000 M!
#426
05!
b010100000000 E!
#427
b010100000000 B
b000 {
b011 %!
15!
b000000000000 M!
#428
05!
b011000000000 E!
#429
b011000000000 ;
b001 {
b100 %!
15!
b000100000000 M!
#430
05!
b011100000000 E!
#431
b011100000000 <
b010 {
b101 %!
15!
b001000000000 M!
#432
05!
b100000000000 E!
#433
b100000000000 =
b011 {
b110 %!
15!
b001100000000 M!
#434
05!
b100100000000 E!
#435
b100100000000 >
b100 {
b111 %!
15!
b010000000000 M!
#436
05!
b101000000000 E!
#437
b101000000000 ?
b101 {
b000 %!
15!
b010100000000 M!
#438
05!
b101100000000 E!
#439
b101100000000 @
b110 {
b001 %!
15!
b011000000000 M!
#440
05!
b110000000000 E!
#441
b110000000000 A
b111 {
b010 %!
15!
b011100000000 M!
#442
05!
b110100000000 E!
#443
b110100000000 B
b000 {
b011 %!
15!
b100000000000 M!
#444
05!
b111000000000 E!
#445
b111000000000 ;
b001 {
b100 %!
15!
b100100000000 M!
#446
05!
b111100000000 E!
#447
b111100000000 <
b010 {
b101 %!
15!
b101000000000 M!
#448
05!
b000000000000 E!
#449
b000000000000 =
b011 {
b110 %!
15!
b101100000000 M!
#450
05!
b000100000000 E!
#451
b000100000000 >
b100 {
b111 %!
15!
b110000000000 M!
#452
05!
b001000000000 E!
#453
b001000000000 ?
b101 {
b000 %!
15!
b110100000000 M!
#454
05!
b001100000000 E!
#455
b001100000000 @
b110 {
b001 %!
15!
b111000000000 M!
#456
05!
b010000000000 E!
#457
b010000000000 A
b111 {
b010 %!
15!
b111100000000 M!
#458
05!
b010100000000 E!
#459
b010100000000 B
b000 {
b011 %!
15!
b000000000000 M!
#460
05!
b011000000000 E!
#461
b011000000000 ;
b001 {
b100 %!
15!
b000100000000 M!
#462
05!
b011100000000 E!
#463
b011100000000 <
b010 {
b101 %!
15!
b001000000000 M!
#464
05!
b100000000000 E!
#465
b100000000000 =
b011 {
b110 %!
15!
b001100000000 M!
#466
05!
b100100000000 E!
#467
b100100000000 >
b100 {
b111 %!
15!
b010000000000 M!
#468
05!
b101000000000 E!
#469
b101000000000 ?
b101 {
b000 %!
15!
b010100000000 M!
#470
05!
b101100000000 E!
#471
b101100000000 @
b110 {
b001 %!
15!
b011000000000 M!
#472
05!
b110000000000 E!
#473
b110000000000 A
b111 {
b010 %!
15!
b011100000000 M!
#474
05!
b110100000000 E!
#475
b110100000000 B
b000 {
b011 %!
15!
b100000000000 M!
#476
05!
b111000000000 E!
#477
b111000000000 ;
b001 {
b100 %!
15!
b100100000000 M!
#478
05!
b111100000000 E!
#479
b111100000000 <
b010 {
b101 %!
15!
b101000000000 M!
#480
05!
b000000000000 E!
#481
b000000000000 =
b011 {
b110 %!
15!
b101100000000 M!
#482
05!
b000100000000 E!
#483
b000100000000 >
b100 {
b111 %!
15!
b110000000000 M!
#484
05!
b001000000000 E!
#485
b001000000000 ?
b101 {
b000 %!
15!
b110100000000 M!
#486
05!
b001100000000 E!
#487
b001100000000 @
b110 {
b001 %!
15!
b111000000000 M!
#488
05!
b010000000000 E!
#489
b010000000000 A
b111 {
b010 %!
15!
b111100000000 M!
#490
05!
b010100000000 E!
#491
b010100000000 B
b000 {
b011 %!
15!
b000000000000 M!
#492
05!
b011000000000 E!
#493
b011000000000 ;
b001 {
b100 %!
15!
b000100000000 M!
#494
05!
b011100000000 E!
#495
b011100000000 <
b010 {
b101 %!
15!
b001000000000 M!
#496
05!
b100000000000 E!
#497
b100000000000 =
b011 {
b110 %!
15!
b001100000000 M!
#498
05!
b100100000000 E!
#499
b100100000000 >
b100 {
b111 %!
15!
b010000000000 M!
#500
05!
b101000000000 E!
#501
b101000000000 ?
b101 {
b000 %!
15!
b010100000000 M!
#502
05!
b101100000000 E!
#503
b101100000000 @
b110 {
b001 %!
15!
b011000000000 M!
#504
05!
b110000000000 E!
#505
b110000000000 A
b111 {
b010 %!
15!
b011100000000 M!
#506
05!
b110100000000 E!
#507
b110100000000 B
b000 {
b011 %!
15!
b100000000000 M!
#508
05!
b111000000000 E!
#509
b111000000000 ;
b001 {
b100 %!
15!
b100100000000 M!
#510
05!
b111100000000 E!
#511
b111100000000 <
b010 {
b101 %!
15!
b101000000000 M!
#512
05!
b000000000000 E!
#513
b000000000000 =
b011 {
b110 %!
15!
b101100000000 M!
#514
05!
b000100000000 E!
#515
b000100000000 >
b100 {
b111 %!
15!
b110000000000 M!
#516
05!
b001000000000 E!
#517
b001000000000 ?
b101 {
b000 %!
15!
b110100000000 M!
#518
05!
b001100000000 E!
#519
b001100000000 @
b110 {
b001 %!
15!
b111000000000 M!
#520
05!
b010000000000 E!
#521
b010000000000 A
b111 {
b010 %!
15!
b111100000000 M!
#522
05!
b010100000000 E!
#523
b010100000000 B
b000 {
b011 %!
15!
b000000000000 M!
#524
05!
b011000000000 E!
#525
b011000000000 ;
b001 {
b100 %!
15!
b000100000000 M!
#526
05!
b011100000000 E!
#527
b011100000000 <
b010 {
b101 %!
15!
b001000000000 M!
#528
05!
b100000000000 E!
#529
b100000000000 =
b011 {
b110 %!
15!
b001100000000 M!
#530
05!
b100100000000 E!
#531
b100100000000 >
b100 {
b111 %!
15!
b010000000000 M!
#532
05!
b101000000000 E!
#533
b101000000000 ?
b101 {
b000 %!
15!
b010100000000 M!
#534
05!
b101100000000 E!
#535
b101100000000 @
b110 {
b001 %!
15!
b011000000000 M!
#536
05!
b110000000000 E!
#537
b110000000000 A
b111 {
b010 %!
15!
b011100000000 M!
#538
05!
b110100000000 E!
#539
b110100000000 B
b000 {
b011 %!
15!
b100000000000 M!
#540
05!
b111000000000 E!
#541
b111000000000 ;
b001 {
b100 %!
15!
b100100000000 M!
#542
05!
b111100000000 E!
#543
b111100000000 <
b010 {
b101 %!
15!
b101000000000 M!
#544
05!
b000000000000 E!
#545
b000000000000 =
b011 {
b110 %!
15!
b101100000000 M!
#546
05!
b000100000000 E!
#547
b000100000000 >
b100 {
b111 %!
15!
b110000000000 M!
#548
05!
b001000000000 E!
#549
b001000000000 ?
b101 {
b000 %!
15!
b110100000000 M!
#550
05!
b001100000000 E!
#551
b001100000000 @
b110 {
b001 %!
15!
b111000000000 M!
#552
05!
b010000000000 E!
#553
b010000000000 A
b111 {
b010 %!
15!
b111100000000 M!
#554
05!
b010100000000 E!
#555
b010100000000 B
b000 {
b011 %!
15!
b000000000000 M!
#556
05!
b011000000000 E!
#557
b011000000000 ;
b001 {
b100 %!
15!
b000100000000 M!
#558
05!
b011100000000 E!
#559
b011100000000 <
b010 {
b101 %!
15!
b001000000000 M!
#560
05!
b100000000000 E!
#561
b100000000000 =
b011 {
b110 %!
15!
b001100000000 M!
#562
05!
b100100000000 E!
#563
b100100000000 >
b100 {
b111 %!
15!
b010000000000 M!
#564
05!
b101000000000 E!
#565
b101000000000 ?
b101 {
b000 %!
15!
b010100000000 M!
#566
05!
b101100000000 E!
#567
b101100000000 @
b110 {
b001 %!
15!
b011000000000 M!
#568
05!
b110000000000 E!
#569
b110000000000 A
b111 {
b010 %!
15!
b011100000000 M!
#570
05!
b110100000000 E!
